make[2]: *** No rule to make target '/home/darth/Desktop/samkit/src/first_pkg/src/test.cpp', needed by 'CMakeFiles/test1.dir/src/test.cpp.o'.  Stop.
make[1]: *** [CMakeFiles/test1.dir/all] Error 2
make[1]: *** Waiting for unfinished jobs....
make: *** [all] Error 2
