CMakeFiles/test1.dir/src/test.cpp.o: In function `main':
test.cpp:(.text+0x27): undefined reference to `Utility::divide(float)'
collect2: error: ld returned 1 exit status
make[2]: *** [/home/darth/Desktop/samkit/devel/.private/first_pkg/lib/first_pkg/test1] Error 1
make[1]: *** [CMakeFiles/test1.dir/all] Error 2
make: *** [all] Error 2
