[01m[K/home/darth/Desktop/samkit/src/first_pkg/src/custom_lib.cpp:1:33:[m[K [01;31m[Kfatal error: [m[Kfirst_pkg/utility.hpp: No such file or directory
compilation terminated.
make[2]: *** [CMakeFiles/first_pkg.dir/src/custom_lib.cpp.o] Error 1
make[1]: *** [CMakeFiles/first_pkg.dir/all] Error 2
make[1]: *** Waiting for unfinished jobs....
make: *** [all] Error 2
