[31m[1mCMake Error[0m at /home/darth/Desktop/samkit/src/first_pkg/CMakeLists.txt:150 (taget_link_libraries):
  Unknown CMake command "taget_link_libraries".


make: *** [cmake_check_build_system] Error 1
