CMake Warning (dev) at CMakeLists.txt:138 (add_dependencies):
  Policy CMP0046 is not set: Error on non-existent dependency in
  add_dependencies.  Run "cmake --help-policy CMP0046" for policy details.
  Use the cmake_policy command to set the policy and suppress this warning.

  The dependency target "second_pkg_generate_messages_cpp" of target
  "use_custom_lib" does not exist.
This warning is for project developers.  Use -Wno-dev to suppress it.

