[01m[K/home/darth/Desktop/samkit/src/second_pkg/src/use_custom_lib.cpp:2:36:[m[K [01;31m[Kfatal error: [m[Kfirst_pkg/custom_lib.hpp: No such file or directory
compilation terminated.
make[2]: *** [CMakeFiles/use_custom_lib.dir/src/use_custom_lib.cpp.o] Error 1
make[1]: *** [CMakeFiles/use_custom_lib.dir/all] Error 2
make: *** [all] Error 2
