[35m[1mScanning dependencies of target use_custom_lib[0m
[ 50%] [32mBuilding CXX object CMakeFiles/use_custom_lib.dir/src/use_custom_lib.cpp.o[0m
[01m[K/home/darth/Desktop/samkit/src/second_pkg/src/use_custom_lib.cpp:2:36:[m[K [01;31m[Kfatal error: [m[Kfirst_pkg/custom_lib.hpp: No such file or directory
compilation terminated.
CMakeFiles/use_custom_lib.dir/build.make:62: recipe for target 'CMakeFiles/use_custom_lib.dir/src/use_custom_lib.cpp.o' failed
make[2]: *** [CMakeFiles/use_custom_lib.dir/src/use_custom_lib.cpp.o] Error 1
CMakeFiles/Makefile2:643: recipe for target 'CMakeFiles/use_custom_lib.dir/all' failed
make[1]: *** [CMakeFiles/use_custom_lib.dir/all] Error 2
Makefile:138: recipe for target 'all' failed
make: *** [all] Error 2
